<svg width="11" height="18" viewBox="0 0 11 18" fill="none" xmlns="http://www.w3.org/2000/svg">
<path fill-rule="evenodd" clip-rule="evenodd" d="M6.21922 17.5525H6.64954C6.92481 17.3774 7.17368 17.3318 7.33435 17.1028C7.48322 16.89 7.57929 16.6165 7.55626 16.2821C7.52086 15.7761 6.06642 12.1457 5.90238 11.3577C6.77988 11.4754 7.75456 11.7146 8.6388 11.8817C9.01351 11.9527 9.71517 12.1716 10.0152 11.9847C10.4562 11.7101 10.1427 11.1827 9.90168 10.9407L1.7733 1.28549C1.21995 0.638778 1.71038 1.05191 0.998606 0.449097H0.663223L0.460983 0.597127C0.198632 0.845344 0.304809 2.3324 0.304809 2.85416L0.305933 13.9181C0.305933 14.2446 0.244698 14.9842 0.393008 15.2313C0.587383 15.5566 1.05422 15.5161 1.29073 15.2166C1.85925 14.4956 2.48788 13.5332 3.06708 12.8268C3.25527 12.5983 3.46257 12.2453 3.66088 12.0624C4.02884 13.0333 4.35973 14.0425 4.70017 15.0292C4.87264 15.5296 5.05465 16.026 5.22824 16.5337C5.48778 17.2919 5.55857 17.2367 6.21922 17.5519V17.5525Z" fill="white"/>
</svg>
