<svg width="217" height="47" viewBox="0 0 217 47" fill="none" xmlns="http://www.w3.org/2000/svg">
<g clip-path="url(#clip0)">
<path d="M47.7677 28.3569C47.7677 28.8913 47.8954 29.298 48.1517 29.5745C48.4079 29.8509 48.6965 30.057 49.0184 30.1899C49.3796 30.3431 49.7959 30.4285 50.2699 30.4479L50.0425 30.6777H39.2333L39.0051 30.4479C39.403 30.4285 39.773 30.3431 40.1149 30.1899C40.3799 30.057 40.6318 29.8518 40.8688 29.5745C41.1059 29.298 41.2239 28.8913 41.2239 28.3569V13.2381C41.2239 12.7231 41.1059 12.326 40.8688 12.0495C40.6318 11.7731 40.3712 11.5671 40.0861 11.4341C39.745 11.2809 39.375 11.1858 38.9771 11.1471L39.2045 10.9173H49.558C49.9936 10.9173 50.521 10.9226 51.1367 10.9323C51.7533 10.9411 52.3882 10.9939 53.0433 11.089C53.6975 11.1849 54.3473 11.3373 54.9919 11.5468C55.6365 11.7572 56.2146 12.0671 56.7263 12.4774C57.2379 12.8877 57.6507 13.408 57.9638 14.0384C58.2769 14.6688 58.4326 15.4506 58.4326 16.3865C58.4326 17.3409 58.2629 18.143 57.921 18.7919C57.5799 19.4407 57.1391 19.9752 56.5986 20.3951C56.0589 20.816 55.452 21.14 54.7785 21.3689C54.106 21.5978 53.4369 21.7642 52.7731 21.8698C52.1092 21.9746 51.4883 22.0371 50.9102 22.0556C50.3312 22.075 49.8711 22.0838 49.5309 22.0838H47.7677V28.3542V28.3569ZM47.7677 21.456H48.7919C50.0058 21.456 50.8682 21.1796 51.3798 20.6258C51.8915 20.072 52.1477 19.0798 52.1477 17.6482V15.1002C52.1477 13.8025 51.8311 12.8851 51.1953 12.3506C50.5603 11.8162 49.7583 11.5486 48.7919 11.5486H47.7677V21.456Z" fill="black"/>
<path d="M67.3088 28.3569C67.3088 28.8913 67.4086 29.298 67.608 29.5745C67.8021 29.8509 68.0251 30.057 68.2718 30.1899C68.5517 30.3431 68.8735 30.4285 69.2295 30.4479L69.0012 30.6777H58.7754L58.548 30.4479C58.9459 30.4285 59.3159 30.3431 59.657 30.1899C59.9228 30.057 60.1738 29.8518 60.4109 29.5745C60.6479 29.298 60.7668 28.8913 60.7668 28.3569V13.2381C60.7668 12.7231 60.6479 12.3225 60.4109 12.0354C60.1738 11.7493 59.9228 11.5389 59.657 11.4051C59.3159 11.2519 58.9459 11.1665 58.548 11.1471L58.7754 10.9173H70.537C71.2533 10.9173 72.0737 10.9516 72.9929 11.0177C73.913 11.0846 74.7701 11.2853 75.5765 11.619C76.3828 11.9527 77.0563 12.4581 77.6055 13.1369C78.1557 13.8139 78.4303 14.7639 78.4303 15.9859C78.4303 17.0741 78.1793 17.937 77.6764 18.577C77.1787 19.2162 76.5385 19.6978 75.761 20.0227C74.9879 20.3476 74.1351 20.558 73.2107 20.6531C72.2818 20.7491 71.3854 20.7966 70.5134 20.7966C70.5326 20.8538 70.7023 20.8926 71.025 20.9111C71.3469 20.9295 71.7501 20.963 72.2285 21.0105C72.7121 21.059 73.2387 21.1303 73.808 21.2254C74.3721 21.3205 74.931 21.4728 75.4811 21.6832C76.026 21.8927 76.5237 22.1798 76.9697 22.5416C77.4149 22.9052 77.7376 23.3631 77.9458 23.916L79.311 29.0709C79.4632 29.4143 79.5909 29.7294 79.695 30.0156C79.7999 30.3017 80.0413 30.4444 80.4209 30.4444L80.1926 30.6741H76.2438C75.4706 30.6741 74.8505 30.5782 74.3853 30.3871C73.9208 30.197 73.5553 29.924 73.2806 29.5718C73.006 29.2188 72.7874 28.7839 72.6264 28.2688C72.4655 27.7538 72.3037 27.1762 72.1428 26.537C71.9871 25.8969 71.7824 25.2005 71.5358 24.446C71.2892 23.6923 70.9481 22.8859 70.5116 22.0266C70.474 21.9887 70.4303 21.9165 70.3839 21.8117C70.3358 21.7061 70.2458 21.6013 70.1181 21.4965C69.9851 21.3909 69.805 21.2967 69.5784 21.2095C69.3502 21.1241 69.0379 21.081 68.64 21.081H67.3071V28.3542L67.3088 28.3569ZM67.3088 20.4541H68.8455C69.4525 20.4541 69.9493 20.4312 70.3385 20.3828C70.7277 20.3353 71.0355 20.2014 71.2629 19.9822C71.4912 19.763 71.6521 19.4284 71.7466 18.9803C71.8419 18.5313 71.8883 17.8965 71.8883 17.0759V14.5279C71.8883 13.8976 71.841 13.3869 71.7466 12.9951C71.6512 12.6033 71.4947 12.304 71.2769 12.0936C71.0591 11.8831 70.7836 11.7405 70.4522 11.6639C70.1207 11.5873 69.7175 11.5494 69.2435 11.5494H67.3088V20.455V20.4541Z" fill="black"/>
<path d="M80.2792 20.7121C80.2792 19.1661 80.4489 17.8437 80.7909 16.7467C81.1319 15.6488 81.5867 14.7279 82.1552 13.983C82.7246 13.2382 83.3692 12.6465 84.0899 12.2081C84.8105 11.7696 85.5557 11.4298 86.3227 11.1921C87.0906 10.9535 87.8489 10.8003 88.5984 10.7334C89.3471 10.6664 90.0249 10.6339 90.6319 10.6339C91.2388 10.6339 91.9175 10.6673 92.6662 10.7334C93.4149 10.8003 94.174 10.9535 94.9419 11.1921C95.7098 11.4307 96.4541 11.7696 97.1748 12.2081C97.8946 12.6465 98.5392 13.2391 99.1085 13.983C99.6779 14.7279 100.133 15.6488 100.474 16.7467C100.816 17.8437 100.985 19.1661 100.985 20.7121C100.985 22.2591 100.83 23.585 100.517 24.6926C100.204 25.8002 99.7767 26.7308 99.2371 27.4844C98.6966 28.2389 98.08 28.8447 97.3873 29.3025C96.6955 29.7612 95.9652 30.1134 95.1973 30.3625C94.4294 30.6108 93.6519 30.7728 92.8647 30.8494C92.0776 30.926 91.3333 30.9639 90.6319 30.9639C89.9313 30.9639 89.1862 30.926 88.399 30.8494C87.6119 30.7728 86.8344 30.6108 86.0665 30.3625C85.2986 30.1143 84.5683 29.7621 83.8764 29.3025C83.1846 28.8447 82.568 28.2389 82.0267 27.4844C81.487 26.7308 81.0602 25.801 80.7471 24.6926C80.434 23.5859 80.2783 22.2591 80.2783 20.7121H80.2792ZM90.6319 30.4198C91.3149 30.4198 91.8747 30.3097 92.3102 30.0905C92.7458 29.8713 93.093 29.5182 93.3493 29.0305C93.6055 28.5436 93.7804 27.9097 93.8749 27.1261C93.9702 26.3434 94.0166 25.389 94.0166 24.2629V17.4475C94.0166 16.2255 93.965 15.2139 93.8609 14.4127C93.7568 13.6106 93.5758 12.9714 93.3204 12.4933C93.0641 12.0161 92.7187 11.6772 92.2822 11.4773C91.8458 11.2775 91.2957 11.1771 90.6319 11.1771C89.9497 11.1771 89.3899 11.2907 88.9544 11.5205C88.518 11.7503 88.1716 12.1121 87.9154 12.6087C87.6591 13.1052 87.4842 13.7497 87.3897 14.5421C87.2944 15.3345 87.248 16.303 87.248 17.4484V24.2638C87.248 25.4858 87.2996 26.4922 87.4037 27.2837C87.5078 28.0769 87.6888 28.7056 87.9442 29.174C88.2005 29.6415 88.5459 29.9663 88.9824 30.1477C89.4179 30.3291 89.9689 30.4198 90.6319 30.4198Z" fill="black"/>
<path d="M109.862 28.3569C109.862 28.8913 109.976 29.298 110.203 29.5745C110.431 29.8509 110.687 30.057 110.972 30.1899C111.294 30.3431 111.663 30.4285 112.081 30.4479L111.853 30.6777H101.328L101.101 30.4479C101.499 30.4285 101.869 30.3431 102.21 30.1899C102.476 30.057 102.727 29.8518 102.964 29.5745C103.201 29.298 103.32 28.8913 103.32 28.3569V13.2381C103.32 12.7415 103.201 12.3603 102.964 12.0927C102.727 11.825 102.476 11.6155 102.21 11.4623C101.869 11.2906 101.499 11.1858 101.101 11.1471L101.328 10.9173H118.623V18.2196H118.054C118.054 17.6658 117.935 17.0072 117.698 16.2439C117.461 15.4797 117.048 14.7498 116.461 14.0534C115.873 13.357 115.081 12.7653 114.085 12.2784C113.09 11.7916 111.824 11.5477 110.289 11.5477H109.862V19.9954H110.8C111.654 19.9954 112.336 19.8044 112.849 19.4231C113.36 19.0419 113.758 18.607 114.043 18.1201C114.328 17.6341 114.526 17.1613 114.64 16.7035C114.753 16.2457 114.838 15.9498 114.896 15.816L115.124 16.0458V24.5789L114.896 24.8078C114.839 24.674 114.754 24.3782 114.64 23.9204C114.526 23.4625 114.327 22.9898 114.043 22.5038C113.758 22.0169 113.36 21.5819 112.849 21.2007C112.336 20.8195 111.654 20.6284 110.8 20.6284H109.862V28.3595V28.3569Z" fill="black"/>
<path d="M130.277 30.9075H132.657V28.3146H132.74C138.229 28.3146 142.065 25.4964 142.065 20.5352C142.065 15.6303 138.313 12.7839 132.656 12.7548V10.7254H130.276V12.7548C124.676 12.783 120.953 15.5739 120.953 20.5352C120.953 25.5246 124.733 28.3146 130.248 28.3146H130.276V30.9075H130.277ZM132.685 14.9823C137.054 14.9823 139.545 17.068 139.545 20.536C139.545 24.2277 136.913 26.1171 132.713 26.1171H132.657V14.9832H132.685V14.9823ZM123.473 20.536C123.473 17.0689 126.021 14.9823 130.277 14.9823V26.1162H130.249C126.133 26.1162 123.473 24.1995 123.473 20.5352V20.536Z" fill="white"/>
<path d="M142.786 30.6821H145.194L147.687 24.7066H156.619L159.139 30.6821H161.686L153.259 10.8389H151.215L142.787 30.6821H142.786ZM152.166 14.0234L155.695 22.4518H148.639L152.167 14.0234H152.166Z" fill="white"/>
<path d="M177.191 26.9614C175.847 28.061 174.055 28.709 172.179 28.709C167.643 28.709 164.535 25.5245 164.535 20.8168C164.535 16.1374 167.559 12.9247 171.815 12.9247C173.859 12.9247 175.371 13.4318 176.659 14.3897L177.751 12.5866C176.351 11.3742 174.307 10.669 171.787 10.669C165.655 10.669 162.015 15.1513 162.015 20.8168C162.015 26.9614 166.075 30.9638 171.955 30.9638C174.391 30.9638 176.827 30.1186 178.143 28.7654L177.191 26.9614Z" fill="white"/>
<path d="M178.248 30.6821H180.656L183.148 24.7066H192.081L194.6 30.6821H197.148L188.72 10.8389H186.676L178.249 30.6821H178.248ZM187.628 14.0234L191.157 22.4518H184.101L187.629 14.0234H187.628Z" fill="white"/>
<path d="M196.946 34.3464H199.186V30.6821H214.418V34.3464H216.658V28.4273H213.998V10.9517H202.462L202.266 14.8977C201.846 23.1562 199.857 27.4122 199.046 28.4273H196.946V34.3464ZM204.506 16.7299L204.758 13.2064H211.617V28.4273H201.678C202.406 27.5258 204.029 23.5233 204.506 16.7299Z" fill="white"/>
<path d="M41.6533 45.7304H42.9774V44.7223C45.0345 44.7117 46.4557 43.6385 46.4557 41.7412C46.4557 39.8773 45.0345 38.7926 42.9774 38.76V37.9685H41.6533V38.76C39.5848 38.7926 38.175 39.8438 38.175 41.7412C38.175 43.6605 39.5743 44.7223 41.6533 44.7223V45.7304ZM45.0564 41.7412C45.0564 42.9016 44.3453 43.4862 42.9774 43.4976V39.9856C44.3882 40.0076 45.0564 40.7225 45.0564 41.742V41.7412ZM39.5744 41.7412C39.5744 40.7111 40.274 39.9961 41.6533 39.9847V43.4967C40.3283 43.4862 39.5744 42.8796 39.5744 41.7403V41.7412Z" fill="black"/>
<path d="M50.5768 45.6441H51.9124L52.6986 43.7037H55.9189L56.7052 45.6441H58.1159L54.928 38.0337H53.7648L50.5768 45.6441ZM54.314 39.7576L55.4116 42.457H53.2041L54.314 39.7576Z" fill="black"/>
<path d="M68.1485 43.9097C67.6316 44.3111 66.9958 44.5163 66.3599 44.5163C64.8198 44.5163 63.7545 43.4325 63.7545 41.8503C63.7545 40.2022 64.8093 39.1835 66.2095 39.1835C66.9634 39.1835 67.4584 39.3895 67.9115 39.6933L68.5036 38.7072C68.0086 38.252 67.1899 37.9377 66.2104 37.9377C63.723 37.9377 62.3551 39.6721 62.3551 41.8512C62.3551 44.2143 63.9382 45.7638 66.2427 45.7638C67.2223 45.7638 68.1809 45.417 68.6549 44.9081L68.1485 43.9105V43.9097Z" fill="black"/>
<path d="M72.8609 45.6441H74.1964L74.9827 43.7037H78.203L78.9892 45.6441H80.4L77.212 38.0337H76.0488L72.8609 45.6441ZM76.5981 39.7576L77.6957 42.457H75.4882L76.5981 39.7576Z" fill="black"/>
<path d="M84.4983 47H85.7368V45.6441H91.0027V47H92.2412V44.3975H91.2179V38.0663H86.544L86.4688 39.5824C86.3394 42.4068 85.6178 44.0101 85.3056 44.3975H84.4983V47ZM87.7072 40.6319L87.8253 39.313H89.9042V44.3975H86.7592C87.0285 44.0638 87.5664 42.5908 87.7072 40.6319Z" fill="black"/>
<path d="M102.252 45.6441H103.566V38.0663H102.252V41.1566H98.806V38.0663H97.481V45.6441H98.806V42.4033H102.252V45.6441Z" fill="black"/>
<path d="M115.483 45.6442H116.797V38.0663H115.483V45.6442ZM111.639 41.8504C112.564 41.8504 113.104 42.273 113.104 43.0865C113.104 43.9749 112.587 44.4195 111.618 44.4195C111.36 44.4195 111.144 44.3975 110.907 44.3869V41.9041C111.209 41.8715 111.434 41.8504 111.639 41.8504ZM110.907 38.0663H109.582V45.6442C110.024 45.6442 110.745 45.6662 111.456 45.6662C113.384 45.6662 114.503 44.6581 114.503 43.053C114.503 41.5678 113.61 40.6037 111.746 40.6037C111.531 40.6037 111.24 40.6143 110.907 40.6574V38.0663Z" fill="black"/>
<path d="M122.812 45.6441H127.282V44.3975H124.137V42.435H126.851V41.1892H124.137V39.313H127.174V38.0663H122.812V45.6441Z" fill="black"/>
<path d="M146.497 43.9097C145.98 44.3111 145.344 44.5163 144.709 44.5163C143.168 44.5163 142.103 43.4325 142.103 41.8503C142.103 40.2022 143.158 39.1835 144.558 39.1835C145.312 39.1835 145.807 39.3895 146.26 39.6933L146.852 38.7072C146.357 38.252 145.539 37.9377 144.559 37.9377C142.072 37.9377 140.704 39.6721 140.704 41.8512C140.704 44.2143 142.287 45.7638 144.591 45.7638C145.571 45.7638 146.529 45.417 147.003 44.9081L146.497 43.9105V43.9097Z" fill="black"/>
<path d="M153.407 45.6441L157.359 40.2638V45.6441H158.684V38.0663H157.521L153.568 43.458V38.0663H152.243V45.6441H153.407Z" fill="black"/>
<path d="M169.934 43.9097C169.417 44.3111 168.781 44.5163 168.145 44.5163C166.605 44.5163 165.54 43.4325 165.54 41.8503C165.54 40.2022 166.595 39.1835 167.995 39.1835C168.749 39.1835 169.244 39.3895 169.697 39.6933L170.289 38.7072C169.794 38.252 168.975 37.9377 167.996 37.9377C165.508 37.9377 164.141 39.6721 164.141 41.8512C164.141 44.2143 165.724 45.7638 168.028 45.7638C169.008 45.7638 169.966 45.417 170.44 44.9081L169.934 43.9105V43.9097Z" fill="black"/>
<path d="M174.742 39.313H177.187V45.6441H178.513V39.313H180.957V38.0663H174.742V39.313Z" fill="black"/>
<path d="M186.035 45.6441H190.505V44.3975H187.36V42.435H190.074V41.1892H187.36V39.313H190.397V38.0663H186.035V45.6441Z" fill="black"/>
<path d="M196.154 45.6441H197.479V40.1987L199.88 43.5329H200.073L202.454 40.1652V45.6441H203.768V38.0663H202.519L200.063 41.6056L197.49 38.0663H196.154V45.6441Z" fill="black"/>
<path d="M215.685 45.6442H217V38.0663H215.685V45.6442ZM211.841 41.8504C212.767 41.8504 213.306 42.273 213.306 43.0865C213.306 43.9749 212.789 44.4195 211.82 44.4195C211.562 44.4195 211.346 44.3975 211.109 44.3869V41.9041C211.411 41.8715 211.637 41.8504 211.841 41.8504ZM211.109 38.0663H209.784V45.6442C210.226 45.6442 210.947 45.6662 211.658 45.6662C213.586 45.6662 214.706 44.6581 214.706 43.053C214.706 41.5678 213.813 40.6037 211.949 40.6037C211.734 40.6037 211.442 40.6143 211.109 40.6574V38.0663Z" fill="black"/>
<path fill-rule="evenodd" clip-rule="evenodd" d="M2.42233 12.5259L15.9026 4.01916L15.9113 18.0946L25.0675 23.6457L25.0754 34.1528L27.3774 34.1757L27.3704 22.502L18.1048 16.7053L18.1643 11.6921L31.7337 20.1671L31.6279 36.051L9.00196 35.9066L8.87864 16.0608L14.3222 12.547L14.33 9.95766L6.58894 14.8388L6.63267 38.3559L25.1095 38.348L25.0282 42.4262L2.25266 42.4235L2.41971 12.5268L2.42233 12.5259ZM27.4193 38.3621L33.999 38.3251L33.9447 18.8289L18.1048 8.91964L18.1162 0L0.00755654 11.229L0.00143433 44.8447L27.422 44.8201L27.4193 38.3621Z" fill="white"/>
</g>
<defs>
<clipPath id="clip0">
<rect width="217" height="47" fill="white"/>
</clipPath>
</defs>
</svg>
