<svg xmlns="http://www.w3.org/2000/svg" width="47" height="49" shape-rendering="geometricPrecision" text-rendering="geometricPrecision" image-rendering="optimizeQuality" fill-rule="evenodd" clip-rule="evenodd" viewBox="0 0 1.61 1.7">
  <path fill="#fff" d="M.3.74c.03.29.32.44.56.34a.21.21 0 00.11-.07c.03-.02.04-.03.04-.05V.48c0-.05.01-.04-.03-.07C.82.25.54.27.39.45A.42.42 0 00.3.74zM.94.3c.01.01.02.02.04.03l.03.03V.27c.01-.03.02-.04.02-.06-.02 0-.04.02-.06.03C.96.25.94.29.94.3zm.43 1c-.03.01-.02.03-.02.06-.01.08-.06.09-.05.12 0 .03.08.06.12-.08.01-.02.01-.06.01-.08 0-.02-.03-.03-.06-.02zM.61.25C.64.25.67.24.71.24c.04 0 .08.01.1.01C.83.18.83.17.8.1.73-.04.68-.03.62.1.58.16.59.18.61.25zM.25.81C.25.79.25.77.24.76.23.67.25.63.25.61.18.58.16.59.1.62.06.63 0 .66 0 .71 0 .75.06.78.1.8c.09.03.07.02.15.01zm.08.16C.31.98.28 1 .27 1.01c-.03.03-.08.18-.04.22.04.03.15-.02.18-.04s.06-.05.06-.08A.467.467 0 01.33.97zm0-.53C.36.4.39.37.42.34.47.3.49.32.46.27.45.26.44.24.43.23.42.22.36.2.34.19.25.16.2.17.22.28c.01.03.02.08.03.1.01.02.06.05.08.06zm.28.72c-.03.08-.02.08.01.15.06.14.11.13.18 0 .02-.05.03-.09.01-.15-.02 0-.08.01-.1.01-.04 0-.07-.01-.1-.01zm.6-.39h.1V.41c0-.05-.01-.11-.07-.09-.04.01-.03.08-.03.13 0 .1-.01.22 0 .32zm-.03.4V.45c0-.08 0-.16.08-.16s.08.08.08.16v.71c.01.01.03.01.04.02.08.04.11.13.09.22-.01.09-.1.17-.2.17-.21 0-.3-.25-.15-.37.02-.02.04-.02.06-.03zm-.1-.11c-.03.03-.05.04-.08.07-.2.23-.02.58.27.57.15 0 .29-.1.33-.25.02-.08.01-.18-.03-.24a.318.318 0 00-.13-.15c-.01-.18 0-.36 0-.54 0-.08.01-.2-.02-.26a.182.182 0 00-.33.01c-.02.05-.01.18-.01.25v.54z"/>
</svg>
