<svg xmlns="http://www.w3.org/2000/svg" width="39" height="44" shape-rendering="geometricPrecision" text-rendering="geometricPrecision" image-rendering="optimizeQuality" fill-rule="evenodd" clip-rule="evenodd" viewBox="0 0 1.13 1.26">
  <path fill="#fff" d="M.85.98c.05-.01.06.05.02.06C.83 1.06.81.99.85.98zm-.6 0c.04-.02.06.05.02.06C.24 1.06.2 1 .25.98zm.46 0c.05-.01.06.05.02.06C.69 1.06.67.99.71.98zm-.32 0c.04-.02.06.05.02.06C.37 1.06.34 1 .39.98zM.86.84C.9.83.92.89.87.9.83.92.81.85.86.84zm-.14 0C.73.83.75.85.76.86.76.89.75.9.73.91.69.92.67.85.72.84zm-.33 0C.43.82.45.89.41.9.38.92.34.86.39.84zm-.14 0C.29.82.31.89.27.9.23.92.21.86.25.84zM.53.63C.53.6.53.6.51.6A.227.227 0 01.39.24C.42.21.47.18.53.17c.03-.01.06 0 .09 0C.64.18.68.2.69.21L.58.32C.54.32.52.33.5.35.47.41.54.47.59.44.62.42.62.41.62.37L.65.34C.66.33.73.26.74.26l.01.01C.82.39.76.55.62.59.61.6.6.6.6.6v.66h.42c.03-.02.02-.05.03-.08l.02-.3c.02-.13.03-.26.04-.39.02-.22.04-.21-.07-.21H.93A.38.38 0 00.34.07L.32.09C.27.12.21.2.19.28H.08C.05.28.01.27 0 .3c-.01.02.05.55.05.59l.03.29c0 .03 0 .06.02.08h.43V.63z"/>
</svg>
