<svg xmlns="http://www.w3.org/2000/svg" width="424" height="91" shape-rendering="geometricPrecision" text-rendering="geometricPrecision" image-rendering="optimizeQuality" fill-rule="evenodd" clip-rule="evenodd" viewBox="0 0 102.29 22.01">
  <path fill-rule="nonzero" d="M22.51 13.28c0 .25.06.44.18.57.13.13.26.22.41.29.17.07.37.11.59.12l-.1.1h-5.1l-.11-.1c.19-.01.37-.05.53-.12.12-.07.24-.16.35-.29.11-.13.17-.32.17-.57V6.2c0-.24-.06-.43-.17-.56-.11-.13-.23-.22-.37-.29-.16-.07-.33-.11-.52-.13l.11-.11h4.88c.2 0 .45 0 .74.01.29 0 .59.03.9.07.31.05.62.12.92.22.3.1.58.24.82.43s.43.44.58.73c.15.3.22.67.22 1.1 0 .45-.08.83-.24 1.13-.16.3-.37.55-.62.75-.26.2-.54.35-.86.46-.32.1-.63.18-.95.23-.31.05-.6.08-.87.09-.28.01-.49.01-.66.01h-.83v2.94zm0-3.23H23c.57 0 .98-.13 1.22-.39s.36-.73.36-1.4V7.07c0-.61-.15-1.04-.45-1.29-.3-.25-.68-.37-1.13-.37h-.49v4.64zm9.21 3.23c0 .25.05.44.15.57.09.13.19.22.31.29.13.07.28.11.45.12l-.11.1H27.7l-.11-.1c.19-.01.37-.05.53-.12.12-.07.24-.16.35-.29.11-.13.17-.32.17-.57V6.2c0-.24-.06-.43-.17-.56a1.06 1.06 0 00-.35-.3c-.16-.07-.34-.11-.53-.12l.11-.11h5.55c.33 0 .72.02 1.15.05.44.03.84.12 1.22.28.38.16.7.39.96.71.26.32.39.76.39 1.34 0 .5-.12.91-.36 1.21-.23.3-.54.52-.9.68-.37.15-.77.25-1.2.29-.44.05-.86.07-1.28.07.01.02.09.04.25.05.15.01.34.03.56.05.23.02.48.05.75.1.26.04.53.11.79.21.25.1.49.24.7.41.21.17.36.38.46.64l.64 2.41c.07.16.13.31.18.44.05.14.17.21.34.21l-.1.1h-1.86c-.37 0-.66-.04-.88-.13a1.28 1.28 0 01-.52-.38c-.13-.17-.23-.37-.31-.61-.07-.24-.15-.51-.23-.81-.07-.3-.17-.63-.28-.98-.12-.36-.28-.73-.49-1.14-.01-.01-.03-.05-.06-.1a.375.375 0 00-.12-.14.891.891 0 00-.26-.14c-.1-.04-.25-.06-.44-.06h-.63v3.41zm0-3.7h.73c.28 0 .52-.01.7-.04.19-.02.33-.08.44-.18.11-.11.18-.26.23-.47.04-.21.06-.51.06-.9V6.8c0-.29-.02-.53-.06-.72-.05-.18-.12-.32-.23-.42-.1-.1-.23-.16-.38-.2-.16-.04-.35-.05-.57-.05h-.92v4.17zm6.12.12c0-.73.08-1.35.24-1.86.16-.51.37-.94.64-1.29.27-.35.57-.63.91-.83.34-.21.69-.37 1.06-.48.36-.11.72-.18 1.07-.21.35-.04.67-.05.96-.05.28 0 .6.01.96.05.35.03.71.1 1.07.21.36.11.71.27 1.05.48.34.2.64.48.91.83s.49.78.65 1.29c.16.51.24 1.13.24 1.86 0 .72-.08 1.34-.22 1.86-.15.52-.35.96-.61 1.31-.25.35-.54.64-.87.85-.32.21-.67.38-1.03.5-.36.11-.73.19-1.1.22-.37.04-.72.06-1.05.06-.33 0-.68-.02-1.05-.06-.38-.03-.74-.11-1.1-.22-.37-.12-.71-.29-1.04-.5-.32-.21-.61-.5-.87-.85-.25-.35-.45-.79-.6-1.31-.15-.52-.22-1.14-.22-1.86zm4.88 4.54c.32 0 .58-.05.79-.15.2-.1.37-.27.49-.5.12-.23.2-.52.25-.89.04-.37.06-.81.06-1.34V8.17c0-.57-.02-1.05-.07-1.42-.05-.38-.13-.68-.26-.9-.12-.22-.28-.38-.48-.48-.21-.09-.47-.14-.78-.14-.32 0-.59.06-.79.16-.21.11-.37.28-.49.51-.12.24-.21.54-.25.91-.05.37-.07.82-.07 1.36v3.19c0 .57.03 1.04.08 1.41.05.38.13.67.25.89.12.22.28.37.49.46.21.08.47.12.78.12zm9.06-.96c0 .25.05.44.16.57.11.13.23.22.36.29.16.07.33.11.53.12l-.11.1h-4.96l-.11-.1c.19-.01.36-.05.52-.12.13-.07.25-.16.36-.29.11-.13.17-.32.17-.57V6.2c0-.23-.06-.41-.17-.54-.11-.12-.23-.22-.36-.29-.16-.08-.33-.13-.52-.15l.11-.11h8.15v3.42h-.27c0-.26-.05-.57-.17-.92-.11-.36-.3-.7-.58-1.03-.28-.33-.65-.6-1.12-.83-.47-.23-1.06-.34-1.79-.34h-.2v3.95h.44c.41 0 .73-.09.97-.27.24-.17.43-.38.56-.61.14-.22.23-.45.28-.66l.12-.42.11.11v4l-.11.1c-.02-.06-.06-.2-.12-.41a2.08 2.08 0 00-.28-.66c-.13-.23-.32-.44-.56-.61-.24-.18-.56-.27-.97-.27h-.44v3.62z"/>
  <path fill="#115E83" fill-rule="nonzero" d="M61.4 14.47h1.12v-1.21h.04c2.59 0 4.4-1.32 4.4-3.65 0-2.29-1.77-3.63-4.44-3.64v-.95H61.4v.95c-2.64.01-4.39 1.32-4.39 3.64 0 2.34 1.78 3.65 4.38 3.65h.01v1.21zm1.14-7.46c2.06 0 3.23.98 3.23 2.6 0 1.73-1.24 2.62-3.22 2.62h-.03V7.01h.02zm-4.34 2.6c0-1.62 1.2-2.6 3.2-2.6v5.22h-.01c-1.94 0-3.19-.9-3.19-2.62zm9.1 4.76h1.13l1.18-2.8h4.21l1.19 2.8h1.2l-3.98-9.3h-.96l-3.97 9.3zm4.42-7.8l1.66 3.94h-3.32l1.66-3.94zm11.8 6.05c-.64.52-1.48.82-2.37.82-2.13 0-3.6-1.49-3.6-3.69 0-2.19 1.43-3.7 3.43-3.7.96 0 1.68.24 2.28.69l.52-.85c-.66-.57-1.62-.9-2.81-.9-2.89 0-4.61 2.1-4.61 4.76 0 2.87 1.92 4.75 4.69 4.75 1.15 0 2.29-.4 2.91-1.03l-.44-.85zm.49 1.75h1.14l1.17-2.8h4.21l1.19 2.8h1.2l-3.97-9.3h-.96l-3.98 9.3zm4.43-7.8l1.66 3.94h-3.33l1.67-3.94zm4.39 9.51h1.05v-1.71h7.18v1.71h1.06v-2.77h-1.26V5.13h-5.43l-.1 1.84c-.19 3.87-1.13 5.86-1.51 6.34h-.99v2.77zm3.56-8.25l.12-1.65h3.23v7.13h-4.68c.34-.42 1.11-2.3 1.33-5.48z"/>
  <path fill-rule="nonzero" d="M19.63 21.41h.63v-.47c.97-.01 1.64-.51 1.64-1.4 0-.87-.67-1.38-1.64-1.39v-.37h-.63v.37c-.97.01-1.64.5-1.64 1.39 0 .9.66 1.4 1.64 1.4v.47zm1.61-1.87c0 .55-.34.82-.98.83v-1.65c.66.01.98.35.98.82zm-2.59 0c0-.48.33-.81.98-.82v1.65c-.62-.01-.98-.29-.98-.83zm5.19 1.83h.63l.37-.91h1.52l.37.91h.66l-1.5-3.56h-.55l-1.5 3.56zm1.76-2.76l.52 1.27h-1.04l.52-1.27zm6.52 1.95c-.24.19-.54.28-.84.28-.73 0-1.23-.5-1.23-1.25 0-.77.5-1.24 1.16-1.24.35 0 .59.09.8.23l.28-.46c-.23-.21-.62-.36-1.08-.36-1.18 0-1.82.81-1.82 1.83 0 1.11.75 1.84 1.83 1.84.46 0 .92-.17 1.14-.4l-.24-.47zm2.22.81h.63l.37-.91h1.52l.37.91h.67l-1.51-3.56h-.54l-1.51 3.56zm1.76-2.76l.52 1.27h-1.04l.52-1.27zm3.73 3.4h.58v-.64h2.48v.64h.59v-1.22H43v-2.97h-2.21l-.03.71c-.06 1.32-.4 2.07-.55 2.26h-.38v1.22zm1.51-2.99l.06-.61h.98v2.38h-1.49c.13-.16.38-.85.45-1.77zm6.86 2.35h.62v-3.55h-.62v1.45h-1.63v-1.45h-.62v3.55h.62v-1.52h1.63v1.52zm6.23 0h.62v-3.55h-.62v3.55zm-1.81-1.78c.44 0 .69.2.69.58 0 .42-.24.63-.7.63-.12 0-.22-.01-.33-.02v-1.16c.14-.02.24-.03.34-.03zm-.34-1.77h-.63v3.55c.21 0 .55.01.89.01.9 0 1.43-.47 1.43-1.22 0-.7-.42-1.15-1.3-1.15-.1 0-.24.01-.39.03v-1.22zm5.61 3.55H60v-.58h-1.49v-.92h1.28v-.59h-1.28v-.87h1.43v-.59h-2.05v3.55zm11.16-.81c-.24.19-.54.28-.84.28-.72 0-1.23-.5-1.23-1.25 0-.77.5-1.24 1.16-1.24.36 0 .59.09.8.23l.28-.46c-.23-.21-.62-.36-1.08-.36-1.17 0-1.82.81-1.82 1.83 0 1.11.75 1.84 1.84 1.84.46 0 .91-.17 1.13-.4l-.24-.47zm3.26.81l1.86-2.52v2.52h.63v-3.55h-.55l-1.86 2.53v-2.53h-.63v3.55h.55zm7.79-.81c-.24.19-.54.28-.84.28-.73 0-1.23-.5-1.23-1.25 0-.77.5-1.24 1.16-1.24.35 0 .59.09.8.23l.28-.46c-.24-.21-.62-.36-1.08-.36-1.18 0-1.82.81-1.82 1.83 0 1.11.75 1.84 1.83 1.84.46 0 .92-.17 1.14-.4l-.24-.47zm2.27-2.15h1.15v2.96h.62v-2.96h1.16v-.59h-2.93v.59zm5.32 2.96h2.11v-.58h-1.48v-.92h1.27v-.59h-1.27v-.87h1.43v-.59h-2.06v3.55zm4.77 0h.63v-2.55l1.13 1.56h.09l1.12-1.57v2.56h.62v-3.55h-.59l-1.16 1.66-1.21-1.66h-.63v3.55zm9.21 0h.62v-3.55h-.62v3.55zm-1.81-1.78c.43 0 .69.2.69.58 0 .42-.25.63-.71.63-.12 0-.22-.01-.33-.02v-1.16c.14-.02.25-.03.35-.03zm-.35-1.77h-.62v3.55c.2 0 .54.01.88.01.91 0 1.44-.47 1.44-1.22 0-.7-.43-1.15-1.3-1.15-.11 0-.24.01-.4.03v-1.22z"/>
  <path fill="#115E83" d="M1.14 5.86L7.5 1.88v6.59l4.31 2.6.01 4.92 1.08.01v-5.46L8.53 7.82l.03-2.35 6.4 3.97-.05 7.44-10.67-.07-.05-9.29 2.56-1.65V4.66L3.11 6.95l.02 11.01 8.71-.01-.04 1.91H1.06l.08-14zm11.78 12.1l3.1-.02L16 8.82 8.53 4.18 8.54 0 0 5.26V21l12.92-.02v-3.02z"/>
</svg>
