<svg xmlns="http://www.w3.org/2000/svg" width="19" height="34" shape-rendering="geometricPrecision" text-rendering="geometricPrecision" image-rendering="optimizeQuality" fill-rule="evenodd" clip-rule="evenodd" viewBox="0 0 0.193 0.336">
  <path fill="#115E83" d="M.086.305C.082.291.103.285.107.298.111.312.09.318.086.305zM.024.069h.145v.198H.024V.069zM.07.03h.051c.007 0 .006.008.002.008L.072.039C.066.038.065.032.07.03zM.03.001A.035.035 0 000 .036V.3c0 .019.014.033.031.035l.066.001.065-.001A.035.035 0 00.193.3V.234.102.036A.035.035 0 00.162.001L.063 0C.054 0 .039-.001.03.001z"/>
</svg>
