<svg xmlns="http://www.w3.org/2000/svg" width="35" height="60" shape-rendering="geometricPrecision" text-rendering="geometricPrecision" image-rendering="optimizeQuality" fill-rule="evenodd" clip-rule="evenodd" viewBox="0 0 1.79 3.12">
  <path fill="#fff" d="M.8 2.83c-.04-.13.16-.19.19-.06.04.13-.15.18-.19.06zM.22.64h1.35v1.84H.22V.64zM.65.28h.47c.07 0 .06.07.02.08H.67C.61.36.61.3.65.28zM.28.01C.12.03 0 .16 0 .34v2.44c0 .18.13.31.28.33.07.01.52.01.62.01.1 0 .54 0 .61-.01.15-.02.28-.15.28-.33v-.61V.95.34c0-.18-.13-.31-.29-.33C1.43 0 .72 0 .59 0 .5 0 .36-.01.28.01z"/>
</svg>
