<svg xmlns="http://www.w3.org/2000/svg" width="48" height="51" shape-rendering="geometricPrecision" text-rendering="geometricPrecision" image-rendering="optimizeQuality" fill-rule="evenodd" clip-rule="evenodd" viewBox="0 0 6.74 7.19">
  <path fill="#FDFEFF" d="M4.88 4.89c.03-.23.01-2.63.01-3.08 0-.32-.01-.69.34-.7.35-.01.36.34.36.67 0 .43-.02 2.88 0 3.09.11.08.3.09.46.35a.923.923 0 01-.79 1.4C4.4 6.65 4 5.55 4.62 5.04c.09-.07.18-.09.26-.15zm-.87-2.15c-.01.01-.01 0-.01.04l.01.38c.2.04.16-.05.16-.21 0-.17.04-.26-.16-.21zm-.45 1.07c.02.08.46.5.52.52.09-.04.09-.08.09-.21 0-.09.02-.22-.02-.29-.01-.02-.24-.28-.34-.29l-.11.14c-.05.05-.1.08-.14.13zm2.38 2.02c.1-.51-.24-.37-.27-.34-.07.07-.04.2-.06.31-.04.28-.27.37-.18.49.12.16.42-.01.51-.46zM4.12.71l.01.47c0 .36-.05.35-.22.52-.07.08-.33.3-.35.38l.28.27c.07-.03.31-.26.32-.33.09-.33-.16-1.03.23-1.41.04-.05.16-.08.14-.17C4.47.42 4.26.41 4.2.42c-.11.01-.08.07-.08.29zm1.06.54c-.09.03-.11.05-.14.16-.05.2-.03 1.2-.03 1.48 0 .37-.06.31.31.31.19 0 .15.02.15-.45v-.61c0-.27.09-1-.29-.89zM2.75 4c-.03.12-.01.42-.01.57 0 .28-.02.25-.17.4-.1.09-.53.5-.57.59.04.06.22.25.29.27.14-.07.3-.34.44-.37.02.12-.02.33.03.42.07.04.33.04.4 0 .06-.09.01-.31.03-.42.14.04.19.21.3.22.02-.1.01-.2.02-.3.01-.11.06-.17-.01-.26-.35-.43-.33-.03-.32-.95 0-.16.03-.2-.12-.19-.05.01-.1.01-.15.01-.02 0-.06-.01-.08-.01L2.75 4zM1.35.53c0 .19.02.32 0 .5L1.01.74C.95.77.77.95.74 1.02c-.01.04.21.25.29.34-.73.03-.61-.03-.61.24 0 .25-.06.2.59.2.55 0 .42-.06.71.22.08.08.27.32.38.33.04-.05.07-.1.12-.15.04-.04.11-.07.14-.14-.06-.09-.25-.26-.34-.35-.19-.19-.23-.13-.23-.49L1.8.53C1.79.41 1.78.41 1.46.42c-.1 0-.1.01-.11.11zM.6 4.09c-.23 0-.18.01-.18.22 0 .24-.04.2.27.21l.34.01c-.04.03-.29.31-.29.34.03.07.21.25.27.27.08-.03.11-.08.16-.13s.12-.13.18-.11c.05.15-.05.41.02.55.07.04.33.04.4 0 .04-.03.02-.71.02-.81 0-.14-.02-.21.06-.29.05-.06.11-.11.18-.18.07-.07.31-.28.33-.36-.04-.05-.09-.08-.14-.13-.05-.04-.08-.09-.12-.14-.11.01-.44.4-.54.49-.1.1-.26.06-.44.06H.6zM2.74.3l-.01.15C2.58.34 2.42.14 2.29.06c-.07.01-.25.2-.29.28 0 .04.53.55.63.65.12.11.11.1.11.32l.01.58h.42c.02-.2.01-.38.01-.58 0-.28 0-.21.31-.53.08-.08.39-.37.42-.44-.03-.07-.22-.26-.28-.28-.08.04-.16.13-.23.2l-.17.15c-.03.03-.04.02-.04.05C3.14.1 3.27 0 3.05 0c-.39 0-.29-.04-.31.3zM.07 2.28c.06.1.27.26.4.44-.5.01-.47-.08-.47.28 0 .2-.05.16.47.17-.08.08-.05.07-.2.22-.06.07-.16.15-.2.22.02.07.21.26.28.29.08-.04.35-.33.43-.41.33-.33.27-.33.54-.32.16 0 .46.02.59-.02.01-.02 0 0 .01-.04l-.01-.36v-.01c-.38-.05-.72.06-.87-.09-.13-.12-.61-.62-.69-.66-.07.03-.26.22-.28.29zm2.78-.12c-.39.08-.76.42-.68.9.15.86 1.31.89 1.54.12.18-.56-.31-1.12-.86-1.02zM5.07.57c-.3.07-.54.28-.6.6-.03.18 0 2.51 0 2.98 0 .36.02.25-.18.43-.42.37-.71 1-.39 1.74.54 1.24 2.47 1.15 2.8-.3.12-.51-.05-.97-.37-1.33-.42-.47-.32.16-.32-1.47V2.01c0-.37.05-.81-.12-1.09-.13-.21-.43-.45-.82-.35z"/>
</svg>
